<?xml version="1.0" encoding="utf-8"?>
<!-- Generator: Adobe Illustrator 19.0.0, SVG Export Plug-In . SVG Version: 6.00 Build 0)  -->
<svg version="1.1"
	 id="Layer_1" xmlns:dc="http://purl.org/dc/elements/1.1/" xmlns:svg="http://www.w3.org/2000/svg" xmlns:sodipodi="http://sodipodi.sourceforge.net/DTD/sodipodi-0.dtd" xmlns:inkscape="http://www.inkscape.org/namespaces/inkscape" xmlns:rdf="http://www.w3.org/1999/02/22-rdf-syntax-ns#" xmlns:cc="http://creativecommons.org/ns#"
	 xmlns="http://www.w3.org/2000/svg" xmlns:xlink="http://www.w3.org/1999/xlink" x="0px" y="0px"
	 viewBox="75 -217.9 1150.9 1435.9" style="enable-background:new 75 -217.9 1150.9 1435.9;" xml:space="preserve">
<g transform="translate(7724.1933,3992.7552)">
	<path d="M-6524.4-3610.1c-0.9-0.1-1.8-0.1-2.5-0.2c-5.2-0.8-10-3.1-13.8-6.8c-3.9-3.8-6.5-8.9-7.3-14.4c-0.2-1.3-0.2-2.1-0.2-3.6
		c0-1.5,0.1-2.3,0.2-3.6c0.8-5.2,3.1-10,6.8-13.8c3.8-3.9,8.9-6.5,14.4-7.3c1.3-0.2,2.1-0.2,3.6-0.2s2.3,0.1,3.6,0.2
		c5.5,0.8,10.5,3.4,14.4,7.3c1.2,1.2,2,2.2,2.9,3.6c2.3,3.5,3.7,7.4,4.1,11.7c0,0.4,0.1,1.4,0.1,2.1c0,1.9-0.1,3.3-0.5,5.1
		c-0.6,3.1-2,6.3-3.8,9c-2.1,3.1-5,5.7-8.2,7.6c-3.1,1.8-6.7,2.9-10.2,3.2C-6521.7-3610.1-6523.8-3610-6524.4-3610.1L-6524.4-3610.1
		z M-6521-3616.2c5.6-0.7,10.5-3.7,13.6-8.4c1.7-2.5,2.7-5.3,3.1-8.5c0.1-0.8,0.1-3.3,0-4.1c-0.6-5.2-3.1-9.6-7.1-12.8
		c-2.7-2.2-6.1-3.6-9.8-4c-0.8-0.1-3.3-0.1-4.1,0c-3.7,0.4-7.1,1.8-9.8,4c-4,3.2-6.4,7.6-7.1,12.8c-0.1,0.8-0.1,3.3,0,4.1
		c0.6,5.2,3.1,9.6,7.1,12.8c2.7,2.2,6.4,3.7,9.8,4c0.3,0,0.7,0.1,0.8,0.1C-6524-3616-6521.6-3616.1-6521-3616.2L-6521-3616.2z
		 M-6526.8-3630.8v-5.6h3.5h3.5v5.6v5.6h-3.5h-3.5V-3630.8z M-6523.9-3637.7c-1.3-0.2-2.3-1.1-2.7-2.4c-0.1-0.4-0.1-0.5-0.1-1.1
		c0-0.5,0-0.7,0.1-1.1c0.4-1.1,1.1-1.9,2.2-2.2c0.4-0.1,0.5-0.1,1.1-0.1c0.5,0,0.7,0,1.1,0.1c1.1,0.4,1.9,1.1,2.2,2.2
		c0.1,0.4,0.1,0.5,0.1,1.1c0,0.5,0,0.7-0.1,1.1c-0.4,1.1-1.1,1.9-2.2,2.2C-6522.7-3637.7-6523.5-3637.7-6523.9-3637.7
		L-6523.9-3637.7z"/>
</g>
</svg>
